//-----------------------------------------------------------------------------
#pragma once
//-----------------------------------------------------------------------------

//-----------------------------------------------------------------------------
{NAMESPACES_START}
//-----------------------------------------------------------------------------

class {CLASS} {



};

//-----------------------------------------------------------------------------
{NAMESPACES_END}
//-----------------------------------------------------------------------------

